Introduction to joint profiling of native and R code • jointprof
…
Furthermore stop_profiler() returns an in-memory representation of the profiled data, invisibly. See ?profiler::validate_profile for a description of the data format.

out_file <- tempfile("jointprof", fileext = ".out")
start_profiler(out_file)
#> Temporary files: /tmp/RtmpSvJN1V/jointprof5253794cc4f7.prof, /tmp/RtmpSvJN1V/jointprof5253722ed306.out
for (i in 1:10) test(700)
profile_data <- stop_profiler()

profile_data
#> Profile data: 598 samples

profile_data$samples
#> # A tibble: 598 x 4
#>    value locations          .pprof_locations  .rprof_locations  
#>    <int> <list>             <list>            <list>            
#>  1     1 <tibble [70 × 1]>  <tibble [63 × 1]> <tibble [70 × 1]> 
#>  2     1 <tibble [187 × 1]> <tibble [63 × 1]> <tibble [187 × 1]>
#>  3     1 <tibble [103 × 1]> <tibble [63 × 1]> <tibble [41 × 1]> 
#>  4     1 <tibble [104 × 1]> <tibble [63 × 1]> <tibble [42 × 1]> 
#>  5     1 <tibble [32 × 1]>  <tibble [63 × 1]> <tibble [32 × 1]> 
#>  6     1 <tibble [54 × 1]>  <tibble [63 × 1]> <tibble [54 × 1]> 
#>  7     1 <tibble [118 × 1]> <tibble [63 × 1]> <tibble [118 × 1]>
#>  8     1 <tibble [104 × 1]> <tibble [63 × 1]> <tibble [42 × 1]> 
#>  9     1 <tibble [230 × 1]> <tibble [63 × 1]> <tibble [230 × 1]>
#> 10     1 <tibble [103 × 1]> <tibble [63 × 1]> <tibble [41 × 1]> 
#> # … with 588 more rows
profile_data$locations
#> # A tibble: 450 x 3
#>    location_id function_id  line
#>          <int>       <int> <int>
#>  1           1           1     0
#>  2           2           2     2
#>  3           3           2     4
#>  4           4           3     0
#>  5           5           4     0
#>  6           6           5     0
#>  7           7           6     4
#>  8           8           7     0
#>  9           9           8     2
#> 10          10           9     0
#> # … with 440 more rows
profile_data$functions
#> # A tibble: 151 x 5
#>    function_id name        system_name filename start_line
#>          <int> <chr>       <chr>       <chr>         <int>
#>  1           1 -           -           ""                0
#>  2           2 -           -           <text>            2
#>  3           3 ___elt      ...elt      ""                0
#>  4           4 _Call       .Call       ""                0
#>  5           5 +           +           ""                0
#>  6           6 +           +           <text>            4
#>  7           7 <=          <=          ""                0
#>  8           8 <=          <=          <text>            2
#>  9           9 <Anonymous> <Anonymous> ""                0
#> 10          10 gc          <GC>        ""                0
#> # … with 141 more rows
…
